{
  "code": 200,
  "message": "成功",
  "data": {
    "channels": [
      {
        "title": "CCTV 1",
        "logo": "https://i.imgur.com/BHUh7hq.jpg",
        "channelUrls": [
          {
            "title": "信号源 1",
            "url": "https://cctvakhwh5ca-cntv.akamaized.net/clive/cctv1_2/index.m3u8"
          }
        ]
      }
    ],
    "totalElements": 45,
    "totalPages": 5,
    "currentPage": 0,
    "pageSize": 10
  }
}
